{
    "limit": 30,
    "nodes": [
        {
            "author": "",
            "category": "",
            "description": "Save images with generation metadata compatible with Civitai. Works with png, jpeg and webp. Stores LoRAs, models and embeddings hashes for resource recognition.",
            "downloads": 5623,
            "icon": "",
            "id": "comfyui-image-saver",
            "latest_version": {
                "changelog": "",
                "createdAt": "2024-12-08T20:23:48.346424Z",
                "dependencies": [
                    "piexif"
                ],
                "deprecated": false,
                "downloadUrl": "",
                "id": "ff3b764d-c6e6-41ea-a629-a4da7eb6c2cc",
                "node_id": "comfyui-image-saver",
                "status": "NodeVersionStatusFlagged",
                "version": "1.4.0"
            },
            "license": "{\"file\": \"LICENSE\"}",
            "name": "ComfyUI Image Saver",
            "publisher": {
                "createdAt": "2024-06-16T10:37:31.334416Z",
                "description": "",
                "id": "alexopus",
                "logo": "",
                "members": [],
                "name": "alexopus",
                "source_code_repo": "",
                "status": "PublisherStatusActive",
                "support": "",
                "website": ""
            },
            "rating": 0,
            "repository": "https://github.com/alexopus/ComfyUI-Image-Saver",
            "status": "",
            "status_detail": "",
            "tags": []
        },
        {
            "author": "",
            "category": "",
            "description": "show lora info",
            "downloads": 1260,
            "icon": "",
            "id": "comfyui-ycyy-lorainfo",
            "latest_version": {
                "changelog": "",
                "createdAt": "2024-09-29T03:09:09.849424Z",
                "dependencies": [],
                "deprecated": false,
                "downloadUrl": "",
                "id": "9ec8f332-1989-4e8f-a039-dcdf1b2c7fd4",
                "node_id": "comfyui-ycyy-lorainfo",
                "status": "NodeVersionStatusActive",
                "version": "1.0.0"
            },
            "license": "{\"file\": \"LICENSE\"}",
            "name": "ComfyUI-YCYY-LoraInfo",
            "publisher": {
                "createdAt": "2024-08-16T06:01:52.703572Z",
                "description": "",
                "id": "ycyy",
                "logo": "",
                "members": [],
                "name": "yichenyanyu",
                "source_code_repo": "",
                "status": "PublisherStatusActive",
                "support": "",
                "website": ""
            },
            "rating": 0,
            "repository": "https://github.com/ycyy/ComfyUI-YCYY-LoraInfo",
            "status": "NodeStatusActive",
            "status_detail": "",
            "tags": []
        },
        {
            "author": "",
            "category": "",
            "description": "An implementation of adaptive guidance for ComfyUI\nSee https://bcv-uniandes.github.io/adaptiveguidance-wp/",
            "downloads": 1307,
            "icon": "",
            "id": "comfyui-adaptive-guidance",
            "latest_version": {
                "changelog": "",
                "createdAt": "2024-08-25T11:50:51.127382Z",
                "dependencies": [],
                "deprecated": false,
                "downloadUrl": "",
                "id": "1a34ec84-b815-46c3-8f70-2401b06f4609",
                "node_id": "comfyui-adaptive-guidance",
                "status": "NodeVersionStatusActive",
                "version": "0.3.1"
            },
            "license": "{\"text\": \"GNU General Public License v3.0\"}",
            "name": "ComfyUI Adaptive Guidance",
            "publisher": {
                "createdAt": "2024-05-23T17:42:14.692322Z",
                "description": "",
                "id": "asagi4",
                "logo": "",
                "members": [],
                "name": "asagi4",
                "source_code_repo": "",
                "status": "PublisherStatusActive",
                "support": "",
                "website": ""
            },
            "rating": 0,
            "repository": "https://github.com/asagi4/ComfyUI-Adaptive-Guidance",
            "status": "NodeStatusActive",
            "status_detail": "",
            "tags": []
        },
        {
            "author": "",
            "category": "",
            "description": "ComfyUI nodes to use [a/DepthAnythingV2](https://depth-anything-v2.github.io/)\nNOTE:Models autodownload to ComfyUI/models/depthanything from [a/https://huggingface.co/Kijai/DepthAnythingV2-safetensors/tree/main](https://huggingface.co/Kijai/DepthAnythingV2-safetensors/tree/main)",
            "downloads": 4288,
            "icon": "",
            "id": "comfyui-depthanythingv2",
            "latest_version": {
                "changelog": "",
                "createdAt": "2024-06-28T20:47:05.463478Z",
                "dependencies": [
                    "huggingface_hub",
                    "accelerate"
                ],
                "deprecated": false,
                "downloadUrl": "",
                "id": "6b5da3c8-fd23-4f25-864a-fdd6b44e0248",
                "node_id": "comfyui-depthanythingv2",
                "status": "NodeVersionStatusActive",
                "version": "1.0.1"
            },
            "license": "LICENSE",
            "name": "ComfyUI-DepthAnythingV2",
            "publisher": {
                "createdAt": "2024-06-09T11:11:54.62154Z",
                "description": "",
                "id": "kijai",
                "logo": "",
                "members": [],
                "name": "Kijai",
                "source_code_repo": "",
                "status": "PublisherStatusActive",
                "support": "",
                "website": ""
            },
            "rating": 0,
            "repository": "https://github.com/kijai/ComfyUI-DepthAnythingV2",
            "status": "NodeStatusActive",
            "status_detail": "",
            "tags": []
        },
        {
            "author": "",
            "category": "",
            "description": "AdvancedLivePortrait with Facial expression editor",
            "downloads": 12252,
            "icon": "",
            "id": "comfyui-advancedliveportrait",
            "latest_version": {
                "changelog": "",
                "createdAt": "2024-08-04T11:40:25.53103Z",
                "dependencies": [
                    "numpy>=1.26.4",
                    "opencv-python-headless",
                    "imageio-ffmpeg>=0.5.1",
                    "lmdb>=1.4.1",
                    "timm>=1.0.7",
                    "rich>=13.7.1",
                    "albumentations>=1.4.10",
                    "ultralytics",
                    "tyro==0.8.5",
                    "dill"
                ],
                "deprecated": false,
                "downloadUrl": "",
                "id": "3af921f1-1d97-4bc4-9eae-f50569e907b3",
                "node_id": "comfyui-advancedliveportrait",
                "status": "NodeVersionStatusFlagged",
                "version": "1.0.0"
            },
            "license": "{\"file\": \"LICENSE\"}",
            "name": "ComfyUI-AdvancedLivePortrait",
            "publisher": {
                "createdAt": "2024-08-04T11:01:45.663146Z",
                "description": "",
                "id": "starmapking",
                "logo": "",
                "members": [],
                "name": "PowerHouseMan",
                "source_code_repo": "",
                "status": "PublisherStatusActive",
                "support": "",
                "website": ""
            },
            "rating": 0,
            "repository": "https://github.com/PowerHouseMan/ComfyUI-AdvancedLivePortrait",
            "status": "NodeStatusActive",
            "status_detail": "",
            "tags": []
        },
        {
            "author": "",
            "category": "",
            "description": "The all in one inference optimization solution for ComfyUI, universal, flexible, and fast.",
            "downloads": 10093,
            "icon": "",
            "id": "wavespeed",
            "latest_version": {
                "changelog": "",
                "createdAt": "2025-01-20T10:39:26.002242Z",
                "dependencies": [],
                "deprecated": false,
                "downloadUrl": "",
                "id": "a317548f-ab5f-46b5-8a6d-7297e3fa3f28",
                "node_id": "wavespeed",
                "status": "NodeVersionStatusPending",
                "version": "1.1.8"
            },
            "license": "{\"file\": \"LICENSE\"}",
            "name": "Comfy-WaveSpeed",
            "publisher": {
                "createdAt": "2025-01-08T07:12:06.402988Z",
                "description": "",
                "id": "chengzeyi",
                "logo": "",
                "members": [],
                "name": "chengzeyi",
                "source_code_repo": "",
                "status": "PublisherStatusActive",
                "support": "",
                "website": ""
            },
            "rating": 0,
            "repository": "https://github.com/chengzeyi/Comfy-WaveSpeed",
            "status": "NodeStatusActive",
            "status_detail": "",
            "tags": []
        },
        {
            "author": "",
            "category": "",
            "description": "A custom ComfyUI node using Together AI's Vision models for free image descriptions, image generation, and image-to-image transformation. Features include customizable prompts, advanced parameters, and robust error handling.",
            "downloads": 41,
            "icon": "icon.svg",
            "id": "comfyui-togethervisionv2",
            "latest_version": {
                "changelog": "",
                "createdAt": "2025-01-16T18:05:58.7279Z",
                "dependencies": [
                    "together",
                    "python-dotenv"
                ],
                "deprecated": true,
                "downloadUrl": "",
                "id": "21b53ba4-3c3a-4ea3-85e0-de2319dd7c67",
                "node_id": "comfyui-togethervisionv2",
                "status": "NodeVersionStatusDeleted",
                "version": "2.0.0"
            },
            "license": "{\"file\": \"LICENSE\"}",
            "name": "ComfyUI-TogetherVisionV2",
            "publisher": {
                "createdAt": "2025-01-16T15:55:57.198675Z",
                "description": "",
                "id": "theshubzworld",
                "logo": "",
                "members": [],
                "name": "Shubz World",
                "source_code_repo": "",
                "status": "PublisherStatusActive",
                "support": "",
                "website": ""
            },
            "rating": 0,
            "repository": "https://github.com/theshubzworld/ComfyUI-TogetherVisionV2",
            "status": "NodeStatusActive",
            "status_detail": "",
            "tags": []
        },
        {
            "author": "",
            "category": "",
            "description": "Custom Nodes for Vision Language Models (VLM) , Large Language Models (LLM), Image Captioning, Automatic Prompt Generation, Creative and Consistent Prompt Suggestion, Keyword Extraction",
            "downloads": 2996,
            "icon": "",
            "id": "comfyui_vlm_nodes",
            "latest_version": {
                "changelog": "",
                "createdAt": "2024-11-03T01:39:45.60324Z",
                "dependencies": [
                    "accelerate>=0.27.0",
                    "bitsandbytes",
                    "cffi",
                    "decord",
                    "diffusers",
                    "diskcache",
                    "einops>=0.7.0",
                    "gitpython",
                    "huggingface-hub>=0.20.3",
                    "moviepy",
                    "openai>=0.27.8",
                    "opencv-python",
                    "optimum>=1.17.0",
                    "pillow>=9.4.0",
                    "py-cpuinfo>=3.3.0",
                    "python-dateutil>=2.7.0",
                    "pytz",
                    "qwen-vl-utils",
                    "safetensors>=0.4.1",
                    "scikit-build",
                    "six",
                    "soundfile",
                    "symusic",
                    "torch>=2.0.1,<3.0.0",
                    "torchvision>=0.15.2",
                    "transformers>=4.38.2",
                    "typing"
                ],
                "deprecated": false,
                "downloadUrl": "",
                "id": "1de96674-ee8c-4f8b-9ace-142e1c1dcf50",
                "node_id": "comfyui_vlm_nodes",
                "status": "NodeVersionStatusFlagged",
                "version": "1.0.6"
            },
            "license": "{\"file\": \"LICENSE\"}",
            "name": "ComfyUI_VLM_nodes",
            "publisher": {
                "createdAt": "2024-05-20T14:41:34.085962Z",
                "description": "",
                "id": "gokayfem",
                "logo": "",
                "members": [],
                "name": "gokayfem",
                "source_code_repo": "",
                "status": "PublisherStatusActive",
                "support": "",
                "website": ""
            },
            "rating": 0,
            "repository": "https://github.com/gokayfem/ComfyUI_VLM_nodes",
            "status": "",
            "status_detail": "",
            "tags": []
        },
        {
            "author": "",
            "category": "",
            "description": "Nodes related to video workflows",
            "downloads": 49130,
            "icon": "",
            "id": "comfyui-videohelpersuite",
            "latest_version": {
                "changelog": "",
                "createdAt": "2025-01-31T04:07:50.373319Z",
                "dependencies": [
                    "opencv-python",
                    "imageio-ffmpeg"
                ],
                "deprecated": false,
                "downloadUrl": "",
                "id": "824f377d-741c-4127-a780-9731148486d9",
                "node_id": "comfyui-videohelpersuite",
                "status": "NodeVersionStatusPending",
                "version": "1.5.0"
            },
            "license": "{\"file\": \"LICENSE\"}",
            "name": "ComfyUI-VideoHelperSuite",
            "publisher": {
                "createdAt": "2024-05-17T04:30:09.087992Z",
                "description": "",
                "id": "kosinkadink",
                "logo": "",
                "members": [],
                "name": "Kosinkadink",
                "source_code_repo": "",
                "status": "PublisherStatusActive",
                "support": "",
                "website": ""
            },
            "rating": 0,
            "repository": "https://github.com/Kosinkadink/ComfyUI-VideoHelperSuite",
            "status": "",
            "status_detail": "",
            "tags": []
        },
        {
            "author": "",
            "category": "",
            "description": "NODES: Add Mask For IC Lora, Create Context Window, Concatenate Context Window, Auto Patch",
            "downloads": 1583,
            "icon": "",
            "id": "comfyui-in-context-lora-utils",
            "latest_version": {
                "changelog": "",
                "createdAt": "2024-12-25T07:12:52.96509Z",
                "dependencies": [],
                "deprecated": false,
                "downloadUrl": "",
                "id": "581137f1-0bbc-401f-92c0-221c0e91df2f",
                "node_id": "comfyui-in-context-lora-utils",
                "status": "NodeVersionStatusFlagged",
                "version": "1.0.0"
            },
            "license": "{\"file\": \"LICENSE\"}",
            "name": "Comfyui-In-Context-Lora-Utils",
            "publisher": {
                "createdAt": "2024-12-25T07:03:37.474647Z",
                "description": "",
                "id": "lrzjason",
                "logo": "",
                "members": [],
                "name": "lrzjason",
                "source_code_repo": "",
                "status": "PublisherStatusActive",
                "support": "",
                "website": ""
            },
            "rating": 0,
            "repository": "https://github.com/lrzjason/Comfyui-In-Context-Lora-Utils",
            "status": "NodeStatusActive",
            "status_detail": "",
            "tags": []
        },
        {
            "author": "",
            "category": "",
            "description": "These are nodes to animate an image with a reference video using UniAnimate. [w/Name conflict with AIFSH/ComfyUI-UniAnimate. Cannot install simulatenously.]",
            "downloads": 704,
            "icon": "",
            "id": "comfyui-unianimate-w",
            "latest_version": {
                "changelog": "",
                "createdAt": "2025-01-16T08:48:30.149011Z",
                "dependencies": [
                    "numpy==1.26.0",
                    "opencv-python==4.9.0.80",
                    "pytorch_lightning==2.3.0",
                    "lightning_utilities==0.10.0",
                    "lightning_fabric==2.3.0",
                    "torchmetrics==1.3.0.post0",
                    "xformers==0.0.27",
                    "einops==0.7.0",
                    "onnxruntime==1.18.0",
                    "open-clip-torch==2.24.0",
                    "fairscale==0.4.13",
                    "easydict==1.11",
                    "imageio==2.33.1",
                    "matplotlib>=3.8.2",
                    "args"
                ],
                "deprecated": false,
                "downloadUrl": "",
                "id": "fb23c454-a7ec-4083-97f3-abf22c504d47",
                "node_id": "comfyui-unianimate-w",
                "status": "NodeVersionStatusPending",
                "version": "1.4.9"
            },
            "license": "{\"file\": \"LICENSE\"}",
            "name": "ComfyUI-UniAnimate-W",
            "publisher": {
                "createdAt": "2024-08-15T06:07:51.42124Z",
                "description": "",
                "id": "isi-dev",
                "logo": "",
                "members": [],
                "name": "isi",
                "source_code_repo": "",
                "status": "PublisherStatusActive",
                "support": "",
                "website": ""
            },
            "rating": 0,
            "repository": "https://github.com/Isi-dev/ComfyUI-UniAnimate-W",
            "status": "NodeStatusActive",
            "status_detail": "",
            "tags": []
        },
        {
            "author": "",
            "category": "",
            "description": "What is ComfyUI_ZenID?\nInspired by [a/InstantID](https://github.com/instantX-research/InstantID) and [a/InstantID Comfy](https://github.com/cubiq/ComfyUI_InstantID) This ZenID Node has been refactored for specialized tasks like Face Swap",
            "downloads": 2949,
            "icon": "",
            "id": "comfyui_zenid",
            "latest_version": {
                "changelog": "",
                "createdAt": "2024-11-16T05:25:35.058413Z",
                "dependencies": [],
                "deprecated": true,
                "downloadUrl": "",
                "id": "eef24f45-bec7-44d2-b71d-02f7ae62587e",
                "node_id": "comfyui_zenid",
                "status": "NodeVersionStatusFlagged",
                "version": "1.0.0"
            },
            "license": "{\"file\": \"LICENSE\"}",
            "name": "ComfyUI_ZenID",
            "publisher": {
                "createdAt": "2024-11-16T05:00:16.979745Z",
                "description": "",
                "id": "vuongminh1907",
                "logo": "",
                "members": [],
                "name": "Vuong Minh",
                "source_code_repo": "",
                "status": "PublisherStatusActive",
                "support": "",
                "website": ""
            },
            "rating": 0,
            "repository": "https://github.com/vuongminh1907/ComfyUI_ZenID",
            "status": "NodeStatusActive",
            "status_detail": "",
            "tags": []
        },
        {
            "author": "",
            "category": "",
            "description": "ComfyUI nodes for the Ultimate Stable Diffusion Upscale script by Coyote-A.",
            "downloads": 17167,
            "icon": "",
            "id": "comfyui_ultimatesdupscale",
            "latest_version": {
                "changelog": "",
                "createdAt": "2024-10-08T04:29:45.879151Z",
                "dependencies": [],
                "deprecated": false,
                "downloadUrl": "",
                "id": "a33d3e2e-0cb0-4d16-901f-2ed0ca1d2983",
                "node_id": "comfyui_ultimatesdupscale",
                "status": "NodeVersionStatusFlagged",
                "version": "1.0.0"
            },
            "license": "{\"text\": \"LICENSE\"}",
            "name": "ComfyUI_UltimateSDUpscale",
            "publisher": {
                "createdAt": "2024-08-18T05:32:31.510976Z",
                "description": "",
                "id": "ssit",
                "logo": "",
                "members": [],
                "name": "ssit",
                "source_code_repo": "",
                "status": "PublisherStatusActive",
                "support": "",
                "website": ""
            },
            "rating": 0,
            "repository": "https://github.com/ssitu/ComfyUI_UltimateSDUpscale",
            "status": "NodeStatusActive",
            "status_detail": "",
            "tags": []
        },
        {
            "author": "",
            "category": "",
            "description": "This extension integrates [a/MV-Adapter](https://github.com/huanngzh/MV-Adapter) into ComfyUI, allowing users to generate multi-view consistent images from text prompts or single images directly within the ComfyUI interface.",
            "downloads": 4838,
            "icon": "",
            "id": "comfyui-mvadapter",
            "latest_version": {
                "changelog": "",
                "createdAt": "2024-12-21T03:22:00.367206Z",
                "dependencies": [
                    "torch>=2.1.1",
                    "torchvision>=0.16.1",
                    "diffusers>=0.31.0",
                    "transformers>=4.46.3",
                    "peft",
                    "numpy>=1.26.2",
                    "huggingface_hub>=0.24.6",
                    "accelerate>=1.1.1",
                    "opencv-python",
                    "safetensors",
                    "pillow",
                    "omegaconf",
                    "trimesh",
                    "einops",
                    "timm",
                    "kornia",
                    "scikit-image"
                ],
                "deprecated": false,
                "downloadUrl": "",
                "id": "bbc719ba-2dd8-4855-bf62-06068484ff8d",
                "node_id": "comfyui-mvadapter",
                "status": "NodeVersionStatusFlagged",
                "version": "1.0.0"
            },
            "license": "{\"file\": \"LICENSE\"}",
            "name": "ComfyUI-MVAdapter",
            "publisher": {
                "createdAt": "2024-12-21T02:56:48.907293Z",
                "description": "",
                "id": "huanngzh",
                "logo": "",
                "members": [],
                "name": "Zehuan Huang",
                "source_code_repo": "",
                "status": "PublisherStatusActive",
                "support": "",
                "website": ""
            },
            "rating": 0,
            "repository": "https://github.com/huanngzh/ComfyUI-MVAdapter",
            "status": "NodeStatusActive",
            "status_detail": "",
            "tags": []
        }
    ],
    "page": 32,
    "total": 944,
    "totalPages": 32
}